%YAML 1.1
%TAG !u! tag:unity3d.com,2011:
--- !u!114 &11400000
MonoBehaviour:
  m_ObjectHideFlags: 0
  m_CorrespondingSourceObject: {fileID: 0}
  m_PrefabInternal: {fileID: 0}
  m_GameObject: {fileID: 0}
  m_Enabled: 1
  m_EditorHideFlags: 0
  m_Script: {fileID: 11500000, guid: a6b194f808b1af6499c93410e504af42, type: 3}
  m_Name: Characters_Atlas
  m_EditorClassIdentifier: 
  atlasFile: {fileID: 4900000, guid: 487d5293752e5024ba5b3b346dc89b4b, type: 3}
  materials:
  - {fileID: 2100000, guid: 3620cf22058537846a53500dfe3d63a3, type: 2}
